-- Merging decision tree log ---
manifest
ADDED from /home/durgesh/Desktop/Project/FinalPeeping/peeping/lib/torch/torch/android/src/main/AndroidManifest.xml:1:1-3:12
INJECTED from /home/durgesh/Desktop/Project/FinalPeeping/peeping/lib/torch/torch/android/src/main/AndroidManifest.xml:1:1-3:12
INJECTED from /home/durgesh/Desktop/Project/FinalPeeping/peeping/lib/torch/torch/android/src/main/AndroidManifest.xml:1:1-3:12
	package
		ADDED from /home/durgesh/Desktop/Project/FinalPeeping/peeping/lib/torch/torch/android/src/main/AndroidManifest.xml:2:3-30
		INJECTED from /home/durgesh/Desktop/Project/FinalPeeping/peeping/lib/torch/torch/android/src/main/AndroidManifest.xml
		INJECTED from /home/durgesh/Desktop/Project/FinalPeeping/peeping/lib/torch/torch/android/src/main/AndroidManifest.xml
	xmlns:android
		ADDED from /home/durgesh/Desktop/Project/FinalPeeping/peeping/lib/torch/torch/android/src/main/AndroidManifest.xml:1:11-69
uses-sdk
INJECTED from /home/durgesh/Desktop/Project/FinalPeeping/peeping/lib/torch/torch/android/src/main/AndroidManifest.xml reason: use-sdk injection requested
INJECTED from /home/durgesh/Desktop/Project/FinalPeeping/peeping/lib/torch/torch/android/src/main/AndroidManifest.xml
INJECTED from /home/durgesh/Desktop/Project/FinalPeeping/peeping/lib/torch/torch/android/src/main/AndroidManifest.xml
	android:minSdkVersion
		INJECTED from /home/durgesh/Desktop/Project/FinalPeeping/peeping/lib/torch/torch/android/src/main/AndroidManifest.xml
		ADDED from /home/durgesh/Desktop/Project/FinalPeeping/peeping/lib/torch/torch/android/src/main/AndroidManifest.xml
		INJECTED from /home/durgesh/Desktop/Project/FinalPeeping/peeping/lib/torch/torch/android/src/main/AndroidManifest.xml
